Exam_3
…
-We tidy up the generalized linear model

tidymod <- tidy(mod1)
tidymod #glimpsing at our tidy data

## # A tibble: 46 x 5
##    term                      estimate std.error statistic   p.value
##    <chr>                        <dbl>     <dbl>     <dbl>     <dbl>
##  1 (Intercept)                 0.547     1.37      0.401  0.689    
##  2 years_since_burn           -0.0223    0.0998   -0.224  0.823    
##  3 compoundalpha_cedrene       7.88      1.93      4.08   0.0000497
##  4 compoundalpha_chamigrene   -0.0972    1.93     -0.0503 0.960    
##  5 compoundalpha_eudesmol      0.361     1.93      0.187  0.852    
##  6 compoundalpha_himachalene  -0.241     1.93     -0.125  0.901    
##  7 compoundalpha_pinene        0.0490    1.93      0.0254 0.980    
##  8 compoundalpha_terpineol     0.446     1.93      0.231  0.818    
##  9 compoundbeta_acorenol       0.829     1.93      0.429  0.668    
## 10 compoundbeta_cedrene        2.12      1.93      1.10   0.273    
## #  with 36 more rows
…
